0.0 6.958456315686119E-6
0.01 9.094016709548289E-6
0.02 1.283825835652443E-5
0.03 1.741814043485087E-5
0.04 2.360976789343317E-5
0.05 3.196782603219544E-5
0.06 4.323073037733114E-5
0.07 5.837755176021061E-5
0.08 7.870031505614922E-5
0.09 1.058946910164773E-4
0.09999999999999999 1.421719668352401E-4
0.11 1.903946574304397E-4
0.12 2.542369294337247E-4
0.13 3.383689183460683E-4
0.14 4.486608209707882E-4
0.15 5.923982611582833E-4
0.16 7.784950294934555E-4
0.17 0.00101768344021175
0.18 0.001322657240853196
0.19 0.001708138658958542
0.2 0.002190841327852531
0.21 0.002789305771220254
0.2200000000000001 0.003523594363398389
0.2300000000000001 0.004414847668453738
0.2400000000000001 0.005484722130885099
0.2500000000000001 0.00675474764642064
0.2600000000000001 0.008245659327088688
0.2700000000000001 0.009976767249837556
0.2800000000000001 0.01196542800598957
0.2900000000000001 0.01422667083034101
0.3000000000000001 0.01677300999471488
0.3100000000000001 0.01961444789447737
0.3200000000000001 0.02275864543986263
0.3300000000000001 0.02621121310018551
0.3400000000000001 0.02997605983636508
0.3500000000000001 0.03405572754010653
0.3600000000000002 0.03845163248697297
0.3700000000000002 0.04316412972857129
0.3800000000000002 0.04819231193247359
0.3900000000000002 0.05353346012829889
0.4000000000000002 0.05918210305292604
0.4100000000000002 0.0651287495713393
0.4200000000000002 0.07135855822197927
0.4300000000000002 0.07785044942314379
0.4400000000000002 0.08457726952743498
0.4500000000000002 0.09150735360568425
0.4600000000000002 0.09860721065956869
0.4700000000000003 0.105844479141782
0.4800000000000003 0.1131902389364497
0.4900000000000003 0.1206202184478888
0.5000000000000002 0.128114978484885
0.5100000000000002 0.1356594414866078
0.5200000000000002 0.1432421417477783
0.5300000000000002 0.1508544485607319
0.5400000000000003 0.1584898855787798
0.5500000000000003 0.1661435841841034
0.5600000000000003 0.173811865402207
0.5700000000000003 0.181491928753354
0.5800000000000003 0.1891816239499401
0.5900000000000003 0.1968792843560495
0.6000000000000003 0.2045836055548655
0.6100000000000003 0.2122935565364603
0.6200000000000003 0.2200083143993846
0.6300000000000003 0.2277272160190444
0.6400000000000003 0.2354497220048799
0.6500000000000004 0.2431753896072956
0.6600000000000004 0.2509038521857453
0.6700000000000004 0.2586348035218719
0.6800000000000004 0.2663679857377374
0.6900000000000004 0.2741031799173397
0.7000000000000004 0.2818401987709468
0.7100000000000004 0.289578880854953
0.7200000000000004 0.2973190859851061
0.7300000000000004 0.3050606915719283
0.7400000000000004 0.3128035896738194
0.7500000000000004 0.3205476846124893
0.7600000000000005 0.3282928910318773
0.7700000000000005 0.3360391323090596
0.7800000000000005 0.3437863392461945
0.7900000000000005 0.3515344489881822
0.8000000000000005 0.3592834041226037
0.8100000000000005 0.3670331519276553
0.8200000000000005 0.3747836437408684
0.8300000000000005 0.3825348344268737
0.8400000000000005 0.3902866819267903
0.8500000000000005 0.3980391468751654
0.8600000000000005 0.4057921922730837
0.8700000000000006 0.413545783208155
0.8800000000000006 0.4212998866138091
0.8900000000000006 0.4290544710616501
0.9000000000000006 0.4368095065817413
0.9100000000000006 0.4445649645065623
0.9200000000000006 0.4523208173350982
0.9300000000000006 0.4600770386141051
0.9400000000000006 0.4678336028340914
0.9500000000000006 0.4755904853379226
0.9600000000000006 0.4833476622403098
0.9700000000000006 0.4911051103566955
0.9800000000000006 0.4988628071402782
0.9900000000000007 0.5066207306261076
1.000000000000001 0.5143788593813421
1.010000000000001 0.5221371724608755
1.020000000000001 0.5298956493676734
1.030000000000001 0.5376542700172333
1.040000000000001 0.5454130147056772
1.050000000000001 0.5531718640810388
1.060000000000001 0.5609307991173758
1.070000000000001 0.5686898010913829
1.080000000000001 0.5764488515612152
1.090000000000001 0.5842079323472862
1.100000000000001 0.5919670255148131
1.110000000000001 0.5997261133579247
1.120000000000001 0.6074851783851642
1.130000000000001 0.6152442033062429
1.140000000000001 0.6230031710199019
1.150000000000001 0.6307620646027897
1.160000000000001 0.638520867299229
1.170000000000001 0.6462795625118005
1.180000000000001 0.6540381337926529
1.190000000000001 0.6617965648354711
1.200000000000001 0.6695548394680378
1.210000000000001 0.6773129416453326
1.220000000000001 0.6850708554431075
1.230000000000001 0.6928285650519092
1.240000000000001 0.7005860547714866
1.250000000000001 0.7083433090055631
1.260000000000001 0.7161003122569233
1.270000000000001 0.7238570491227979
1.280000000000001 0.7316135042905022
1.290000000000001 0.7393696625333149
1.300000000000001 0.7471255087065675
1.310000000000001 0.7548810277439222
1.320000000000001 0.7626362046538141
1.330000000000001 0.7703910245160489
1.340000000000001 0.7781454724785243
1.350000000000001 0.7858995337540693
1.360000000000001 0.7936531936173792
1.370000000000001 0.8014064374020347
1.380000000000001 0.8091592504975864
1.390000000000001 0.816911618346693
1.400000000000001 0.8246635264423031
1.410000000000001 0.8324149603248574
1.420000000000001 0.8401659055795117
1.430000000000001 0.8479163478333567
1.440000000000001 0.8556662727526206
1.450000000000001 0.8634156660398594
1.460000000000001 0.8711645134310949
1.470000000000001 0.8789128006929082
1.480000000000001 0.8866605136194662
1.490000000000001 0.8944076380294684
1.500000000000001 0.9021541597629972
1.510000000000001 0.9099000646782591
1.520000000000001 0.917645338648201
1.530000000000001 0.9253899675569789
1.540000000000001 0.9331339372962704
1.550000000000001 0.9408772337614011
1.560000000000001 0.9486198428472705
1.570000000000001 0.9563617504440577
1.580000000000001 0.964102942432673
1.590000000000001 0.9718434046799418
1.600000000000001 0.9795831230334813
1.610000000000001 0.9873220833162528
1.620000000000001 0.9950602713207407
1.630000000000001 1.002797672802738
1.640000000000001 1.010534273474689
1.650000000000001 1.018270058998548
1.660000000000001 1.026005014978112
1.670000000000001 1.033739126950766
1.680000000000001 1.041472380378598
1.690000000000001 1.049204760638803
1.700000000000001 1.056936253013322
1.710000000000001 1.064666842677633
1.720000000000001 1.072396514688608
1.730000000000001 1.080125253971344
1.740000000000001 1.087853045304858
1.750000000000001 1.095579873306538
1.760000000000001 1.103305722415213
1.770000000000001 1.111030576872695
1.780000000000001 1.118754420703638
